Reading in Multiple Data Files at Once | Slack Overflow tips & tricks
…
data

## # A tibble: 100,000 × 140
##    date       text  title permalink `site name` queries lang  tone  `emotion(s)`
##    <chr>      <chr> <chr> <chr>     <chr>       <chr>   <chr> <chr> <chr>       
##  1 08/02/202… "Hap… <NA>  https://… http://ins… Adidas  en    posi… joy         
##  2 02/03/202… "Hap… <NA>  https://… http://ins… Adidas  en    posi… joy         
##  3 16/03/202… "Hap… <NA>  https://… http://ins… Adidas  en    posi… joy         
##  4 16/04/202… "Loo… <NA>  https://… http://ins… Adidas  en    posi… <NA>        
##  5 27/04/202… "Hum… <NA>  https://… http://ins… Adidas  en    posi… joy         
##  6 30/03/202… "It’… <NA>  https://… http://ins… Adidas  en    posi… <NA>        
##  7 15/02/202… "Hap… <NA>  https://… http://ins… Adidas  en    posi… joy         
##  8 09/03/202… "Hap… <NA>  https://… http://ins… Adidas  en    posi… joy         
##  9 23/02/202… "Hap… <NA>  https://… http://ins… Adidas  en    posi… <NA>        
## 10 09/03/202… "🚨…  <NA>  https://… http://ins… Adidas  en    posi… <NA>        
## # … with 99,990 more rows, and 131 more variables: platform <chr>,
## #   `post type` <chr>, `source name` <lgl>, author <chr>, `screen name` <chr>,
## #   gender <chr>, avatar <chr>, `verified author account` <chr>,
## #   `inferred country` <chr>, `inferred region` <chr>, `inferred city` <chr>,
## #   `inferred longitude` <dbl>, `inferred latitude` <dbl>,
## #   `inferred country population` <dbl>, `inferred region population` <dbl>,
## #   `inferred city population` <dbl>, `declared country` <chr>, …
…
