…
Now we can start to do whatever analysis is required, for example we could count the number of posts from each subreddit in our data frame using dplyr::count()…

compare_subreddits %>%
  dplyr::count(subreddits, sort = TRUE)

## # A tibble: 9,279 × 2
##    subreddits              n
##    <chr>               <int>
##  1 /r/apple/             956
##  2 /r/pcmasterrace/      841
##  3 /r/mac/               671
##  4 /r/AskReddit/         623
##  5 /r/ipad/              621
##  6 /r/macbookpro/        546
##  7 /r/linuxmasterrace/   531
##  8 /r/thinkpad/          475
##  9 /r/buildapc/          457
## 10 /r/linux_gaming/      438
## # … with 9,269 more rows

… or we might want to filter out unwanted posts from questionable subreddits (such as /r/wallstreetbets) using dplyr::filter…

compare_subreddits %>%
  dplyr::filter(!subreddits == "/r/wallstreetbets/")

## # A tibble: 59,361 × 3
##    mention_content                                        mention_url subreddits
##    <chr>                                                  <chr>       <chr>     
##  1 install linux ubuntu popos dual boot convince things … https://ww… /r/thinkp…
##  2 nato buy titanium band amazon ll love titanium band f… https://ww… /r/OmegaW…
##  3 found facebook love nanny degree ece previously worke… https://ww… /r/bayare…
##  4 cooling blankets shiny striped bamboo amazon shiny wo… https://ww… /r/Menopa…
##  5 amazon approved exception return product year late th… https://ww… /r/boardg…
##  6 mount sigma mm f extremely sharp favorite shot sony a… https://ww… /r/fujifi…
##  7 great running google mesh router google nest hub add … https://ww… /r/homeau…
##  8 wondering copy redhat unlimited updates customer supp… https://ww… /r/linuxm…
##  9 great gmail hangouts easy imo                          https://ww… /r/Minecr…
## 10 knowledge helios bad good lenovo legion y legion disa… https://ww… /r/Sugges…
## # … with 59,351 more rows
…
